<svg id="Capa_1" data-name="Capa 1" xmlns="http://www.w3.org/2000/svg" viewBox="0 0 45 45">
  <path d="M22.6,0A22.5,22.5,0,1,0,45,22.5,22.5,22.5,0,0,0,22.6,0Zm-.1,43.49a21,21,0,1,1,21-21A21,21,0,0,1,22.5,43.49Z" transform="translate(-0.05 0)" style="fill:#504e50"/>
  <path d="M30.34,12.2A5.57,5.57,0,0,0,29,9.76a3.28,3.28,0,0,0-2.41-1h0a.66.66,0,0,0-.63.69v0a.65.65,0,0,0,.69.61,2,2,0,0,1,1.44.59,4.28,4.28,0,0,1,1.1,3.14,13.47,13.47,0,0,1-.89,3.73A8.94,8.94,0,0,0,27.56,21a5.52,5.52,0,0,0,.53,1.43c.42.88,1,2.09.56,2.7a.71.71,0,0,1-.58.25,1.64,1.64,0,0,1-1.27-.54c-.51-.66-.57-2.12-.62-3.4a9.11,9.11,0,0,0-.53-3.4c-.48-1-.26-2.65-.07-4.11.22-1.69.42-3.28-.3-4.23C24.35,8.5,22,7.5,19.45,7.25a9.82,9.82,0,0,0-7.49,2C7.6,13.09,8.18,20.19,10.27,23.83a12.38,12.38,0,0,1,1,8.32h0a.66.66,0,0,0,.45.82h.19a.66.66,0,0,0,.57-.47,13.7,13.7,0,0,0-1.07-9.36c-2.91-5.05-1-10.75,1.42-12.92a8.55,8.55,0,0,1,6.48-1.7c2.43.28,4.31,1.21,4.91,2,.36.51.17,2,0,3.25a10.14,10.14,0,0,0,0,4.49,16.16,16.16,0,0,0-1.52,2.15c-1.26,4,2.73,16.47,2.9,17a.66.66,0,0,0,.63.46.67.67,0,0,0,.2,0h0a.66.66,0,0,0,.43-.83C25.79,33.5,23.08,23.8,24,20.86q.33-.52.69-1a8.61,8.61,0,0,1,.12,1.65c.06,1.56.13,3.16.9,4.16a3,3,0,0,0,2.35,1.05,2,2,0,0,0,1.63-.82c.86-1.22.1-2.82-.45-4a5.44,5.44,0,0,1-.42-1A9,9,0,0,1,29.51,18l0-.13a22.77,22.77,0,0,1,5-.26,1.57,1.57,0,0,0,1.56-1,1.54,1.54,0,0,0-.36-1.75A10.5,10.5,0,0,0,30.34,12.2Zm4.59,3.91a.24.24,0,0,1-.26.16,24,24,0,0,0-4.64.18,14.28,14.28,0,0,0,.48-2.59c0-.09,0-.17,0-.26a9.11,9.11,0,0,1,4.37,2.25A.21.21,0,0,1,34.93,16.11Z" transform="translate(-0.05 0)" style="fill:#504e50"/></svg>
